<svg viewBox="0 0 24 24" xmlns="http://www.w3.org/2000/svg">
    <title>arrows circle expand</title>
    <g fill="none" class="nc-icon-wrapper" stroke="currentColor">
        <path d="M17.506 14.678v-4.243h-4.242"  stroke-width="1.5" stroke-linecap="round"
              stroke-linejoin="round"/>
        <path d="M10.435 13.263v4.243h4.243"  stroke-width="1.5" stroke-linecap="round"
              stroke-linejoin="round"/>
        <path d="M20.335 20.334A9 9 0 1 1 7.607 7.607a9 9 0 0 1 12.728 12.727z"  stroke-width="1.5"
              stroke-linecap="round" stroke-linejoin="round"/>
    </g>
</svg>
